ITEC562-001 Project 11/28/2016

================================================================================================
This repository includes all files for Michelle Sprague's ITEC562-001 final project.The project's
aim was to create a good looking, multipage website that interacts with a database.

=================================================================================================
Michelle Sprague can be reached at 

Phone: 603-533-0084
E-mail: msprague@email.sc.edu
